%YAML 1.1
%TAG !u! tag:unity3d.com,2011:
--- !u!1045 &1
EditorBuildSettings:
  m_ObjectHideFlags: 0
  serializedVersion: 2
  m_Scenes:
  - enabled: 1
    path: Assets/Scenes/SCN_Teia.unity
    guid: a079c24928d55fa43ab24ef587b12a49
  - enabled: 1
    path: Assets/Scenes/SCN_Loading.unity
    guid: 4e9afe49b57fdc848b1e3b5e9a6f60ec
  - enabled: 1
    path: Assets/Scenes/SCN_MainMenu.unity
    guid: 0d3dd5d4d15570b4dad6b90c4fe730a9
  - enabled: 1
    path: Assets/Scenes/SCN_StageSelection.unity
    guid: af3970bb4a2b7654ba4ed399c35a552a
  - enabled: 1
    path: Assets/Scenes/SCN_MainGame.unity
    guid: 0f9a42a7e9d23ff499a8a732f9473b60
