%YAML 1.1
%TAG !u! tag:unity3d.com,2011:
--- !u!78 &1
TagManager:
  serializedVersion: 2
  tags:
  - Background
  - Obstacle
  - Buoy
  - Quay
  - Dock
  - WrongDock
  - PauseButton
  - ReadQuestionButton
  - AudioController
  - SFXController
  - Collectable
  - Swirl
  - Constraints
  layers:
  - Default
  - TransparentFX
  - Ignore Raycast
  - 
  - Water
  - UI
  - 
  - 
  - Background
  - Middleground
  - Foreground
  - 
  - 
  - 
  - 
  - 
  - 
  - 
  - 
  - 
  - 
  - 
  - 
  - 
  - 
  - 
  - 
  - 
  - 
  - 
  - 
  - 
  m_SortingLayers:
  - name: Background
    uniqueID: 1146908175
    locked: 0
  - name: Default
    uniqueID: 0
    locked: 0
  - name: Dock
    uniqueID: 205348621
    locked: 0
  - name: Letter
    uniqueID: 2372304247
    locked: 0
  - name: Obstacles
    uniqueID: 1359397127
    locked: 0
  - name: Player
    uniqueID: 2715061539
    locked: 0
  - name: Wave
    uniqueID: 2580160827
    locked: 0
  - name: Buoy
    uniqueID: 1974160903
    locked: 0
