%YAML 1.1
%TAG !u! tag:unity3d.com,2011:
--- !u!114 &11400000
MonoBehaviour:
  m_ObjectHideFlags: 0
  m_PrefabParentObject: {fileID: 0}
  m_PrefabInternal: {fileID: 0}
  m_GameObject: {fileID: 0}
  m_Enabled: 1
  m_EditorHideFlags: 0
  m_Script: {fileID: 11500000, guid: 54d21f6ece3b46479f0c328f8c6007e0, type: 3}
  m_Name: CLR_SilverColorGradient
  m_EditorClassIdentifier: 
  topLeft: {r: 0.66176474, g: 0.66176474, b: 0.66176474, a: 1}
  topRight: {r: 1, g: 1, b: 1, a: 1}
  bottomLeft: {r: 1, g: 1, b: 1, a: 1}
  bottomRight: {r: 0.6627451, g: 0.6627451, b: 0.6627451, a: 1}
